[
  {
    "id": 1,
    "url": "http://lan.leagueoflegends.com/es/news/esports/esports-event/gran-final-de-la-cln-en-la-arena-ciudad-de-mexico",
    "is_youtube": false,
    "thumb_url": "http://lan.leagueoflegends.com/sites/default/files/upload/1920x1080_teamroster_header_2ndsplit.jpg",
    "title": "Vive el duelo final en primera fila",
    "subtitle": "¡Boletos a la venta próximamente!",
    "date": "2016-06-26"
  },
  {
    "id": 2,
    "url": "https://www.youtube.com/watch?v=dOT3vhSd6UI",
    "is_youtube": false,
    "thumb_url": "http://news.cdn.leagueoflegends.com.s3.amazonaws.com/public/images/articles-latam/2016/june_2016/copa/thumbs/CDC_YT_1.jpg",
    "title": "Crónicas de Combate: LYO vs JTH",
    "subtitle": "Revive paso a paso los momentos más críticos de nuestra escena competitiva.",
    "date": "2016-06-26"
  },
  {
    "id": 5,
    "url": "http://lan.leagueoflegends.com/es/news/esports/esports-editorial/los-fantasmas-de-promocion/relegacion-acechan",
    "is_youtube": false,
    "thumb_url": "http://lan.leagueoflegends.com/sites/default/files/styles/scale_xlarge/public/upload/1280x720_cln_resumen_semanal_5.jpg?itok=MA7E9bNn",
    "title": "¿Te perdiste la acción de la CLN esta semana?",
    "subtitle": "¡Actualízate aquí!",
    "date": "2016-07-01"
  }
]