{
  "id": "1",
  "text": "Estas reglas oficiales (''Reglas'') de la Copa Latinoamérica Norte (''Liga'') aplican a todos y cada uno de los equipos que se hayan clasificado para participar en la Copa Latinoamérica Norte 2016, así como también a su Gerente General, Entrenador, Jugadores Titulares y Reservas (colectivamente “Plantel Activo'') y demás empleados. Estas se aplican exclusivamente a la Copa Latinoamérica Norte 2016 y a ningún otro torneo, competición o partidas organizadas de League of Legends (''LoL'').La temporada 2016 de la Copa Latinoamérica Norte estará dividida en dos (''Ciclos'') denominados Apertura y Clausura. Cada ciclo constará de tres fases: (a) una temporada regular, (b) las eliminatorias, que tendrán lugar al finalizar la temporada regular, y (c) partidos de promoción/relegación luego de que concluyan las eliminatorias. Estas reglas oficiales (''Reglas'') de la Copa Latinoamérica Norte (''Liga'') aplican a todos y cada uno de los equipos que se hayan clasificado para participar en la Copa Latinoamérica Norte 2016, así como también a su Gerente General, Entrenador, Jugadores Titulares y Reservas (colectivamente “Plantel Activo'') y demás empleados. Estas se aplican exclusivamente a la Copa Latinoamérica Norte 2016 y a ningún otro torneo, competición o partidas organizadas de League of Legends (''LoL''). La temporada 2016 de la Copa Latinoamérica Norte estará dividida en dos (''Ciclos'') denominados Apertura y Clausura. Cada ciclo constará de tres fases: (a) una temporada regular, (b) las eliminatorias, que tendrán lugar al finalizar la temporada regular, y (c) partidos de promoción/relegación luego de que concluyan las eliminatorias.Estas reglas oficiales (''Reglas'') de la Copa Latinoamérica Norte (''Liga'') aplican a todos y cada uno de los equipos que se hayan clasificado para participar en la Copa Latinoamérica Norte 2016, así como también a su Gerente General, Entrenador, Jugadores Titulares y Reservas (colectivamente “Plantel Activo'') y demás empleados. Estas se aplican exclusivamente a la Copa Latinoamérica Norte 2016 y a ningún otro torneo, competición o partidas organizadas de League of Legends (''LoL'').La temporada 2016 de la Copa Latinoamérica Norte estará dividida en dos (''Ciclos'') denominados Apertura y Clausura. Cada ciclo constará de tres fases: (a) una temporada regular, (b) las eliminatorias, que tendrán lugar al finalizar la temporada regular, y (c) partidos de promoción/relegación luego de que concluyan las eliminatorias.La temporada 2016 de la Copa Latinoamérica Norte estará dividida en dos (''Ciclos'') denominados Apertura y Clausura. Cada ciclo constará de tres fases: (a) una temporada regular, (b) las eliminatorias, que tendrán lugar al finalizar la temporada regular, y (c) partidos de promoción/relegación luego de que concluyan las eliminatorias. Estas reglas oficiales (''Reglas'') de la Copa Latinoamérica Norte (''Liga'') aplican a todos y cada uno de los equipos que se hayan clasificado para participar en la Copa Latinoamérica Norte 2016, así como también a su Gerente General, Entrenador, Jugadores Titulares y Reservas (colectivamente “Plantel Activo'') y demás empleados. Estas se aplican exclusivamente a la Copa Latinoamérica Norte 2016 y a ningún otro torneo, competición o partidas organizadas de League of Legends (''LoL''). La temporada 2016 de la Copa Latinoamérica Norte estará dividida en dos (''Ciclos'') denominados Apertura y Clausura. Cada ciclo constará de tres fases: (a) una temporada regular, (b) las eliminatorias, que tendrán lugar al finalizar la temporada regular, y (c) partidos de promoción/relegación luego de que concluyan las eliminatorias. La temporada 2016 de la Copa Latinoamérica Norte estará dividida en dos (''Ciclos'') denominados Apertura y Clausura. Cada ciclo constará de tres fases: (a) una temporada regular, (b) las eliminatorias, que tendrán lugar al finalizar la temporada regular, y (c) partidos de promoción/relegación luego de que concluyan las eliminatorias. Estas reglas oficiales (''Reglas'') de la Copa Latinoamérica Norte (''Liga'') aplican a todos y cada uno de los equipos que se hayan clasificado para participar en la Copa Latinoamérica Norte 2016, así como también a su Gerente General, Entrenador, Jugadores Titulares y Reservas (colectivamente “Plantel Activo'') y demás empleados. Estas se aplican exclusivamente a la Copa Latinoamérica Norte 2016 y a ningún otro torneo, competición o partidas organizadas de League of Legends (''LoL''). La temporada 2016 de la Copa Latinoamérica Norte estará dividida en dos (''Ciclos'') denominados Apertura y Clausura. Cada ciclo constará de tres fases: (a) una temporada regular, (b) las eliminatorias, que tendrán lugar al finalizar la temporada regular, y (c) partidos de promoción/relegación luego de que concluyan las eliminatorias.La temporada 2016 de la Copa Latinoamérica Norte estará dividida en dos (''Ciclos'') denominados Apertura y Clausura. Cada ciclo constará de tres fases: (a) una temporada regular, (b) las eliminatorias, que tendrán lugar al finalizar la temporada regular, y (c) partidos de promoción/relegación luego de que concluyan las eliminatorias. Estas reglas oficiales (''Reglas'') de la Copa Latinoamérica Norte (''Liga'') aplican a todos y cada uno de los equipos que se hayan clasificado para participar en la Copa Latinoamérica Norte 2016, así como también a su Gerente General, Entrenador, Jugadores Titulares y Reservas (colectivamente “Plantel Activo'') y demás empleados. Estas se aplican exclusivamente a la Copa Latinoamérica Norte 2016 y a ningún otro torneo, competición o partidas organizadas de League of Legends (''LoL''). La temporada 2016 de la Copa Latinoamérica Norte estará dividida en dos (''Ciclos'') denominados Apertura y Clausura. Cada ciclo constará de tres fases: (a) una temporada regular, (b) las eliminatorias, que tendrán lugar al finalizar la temporada regular, y (c) partidos de promoción/relegación luego de que concluyan las eliminatorias.Estas reglas oficiales (''Reglas'') de la Copa Latinoamérica Norte (''Liga'') aplican a todos y cada uno de los equipos que se hayan clasificado para participar en la Copa Latinoamérica Norte 2016, así como también a su Gerente General, Entrenador, Jugadores Titulares y Reservas (colectivamente “Plantel Activo'') y demás empleados. Estas se aplican exclusivamente a la Copa Latinoamérica Norte 2016 y a ningún otro torneo, competición o partidas organizadas de League of Legends (''LoL'').La temporada 2016 de la Copa Latinoamérica Norte estará dividida en dos (''Ciclos'') denominados Apertura y Clausura. Cada ciclo constará de tres fases: (a) una temporada regular, (b) las eliminatorias, que tendrán lugar al finalizar la temporada regular, y (c) partidos de promoción/relegación luego de que concluyan las eliminatorias.Estas reglas oficiales (''Reglas'') de la Copa Latinoamérica Norte (''Liga'') aplican a todos y cada uno de los equipos que se hayan clasificado para participar en la Copa Latinoamérica Norte 2016, así como también a su Gerente General, Entrenador, Jugadores Titulares y Reservas (colectivamente “Plantel Activo'') y demás empleados. Estas se aplican exclusivamente a la Copa Latinoamérica Norte 2016 y a ningún otro torneo, competición o partidas organizadas de League of Legends (''LoL'').La temporada 2016 de la Copa Latinoamérica Norte estará dividida en dos (''Ciclos'') denominados Apertura y Clausura. Cada ciclo constará de tres fases: (a) una temporada regular, (b) las eliminatorias, que tendrán lugar al finalizar la temporada regular, y (c) partidos de promoción/relegación luego de que concluyan las eliminatorias. Estas reglas oficiales (''Reglas'') de la Copa Latinoamérica Norte (''Liga'') aplican a todos y cada uno de los equipos que se hayan clasificado para participar en la Copa Latinoamérica Norte 2016, así como también a su Gerente General, Entrenador, Jugadores Titulares y Reservas (colectivamente “Plantel Activo'') y demás empleados. Estas se aplican exclusivamente a la Copa Latinoamérica Norte 2016 y a ningún otro torneo, competición o partidas organizadas de League of Legends (''LoL''). La temporada 2016 de la Copa Latinoamérica Norte estará dividida en dos (''Ciclos'') denominados Apertura y Clausura. Cada ciclo constará de tres fases: (a) una temporada regular, (b) las eliminatorias, que tendrán lugar al finalizar la temporada regular, y (c) partidos de promoción/relegación luego de que concluyan las eliminatorias. La temporada 2016 de la Copa Latinoamérica Norte estará dividida en dos (''Ciclos'') denominados Apertura y Clausura. Cada ciclo constará de tres fases: (a) una temporada regular, (b) las eliminatorias, que tendrán lugar al finalizar la temporada regular, y (c) partidos de promoción/relegación luego de que concluyan las eliminatorias. Estas reglas oficiales (''Reglas'') de la Copa Latinoamérica Norte (''Liga'') aplican a todos y cada uno de los equipos que se hayan clasificado para participar en la Copa Latinoamérica Norte 2016, así como también a su Gerente General, Entrenador, Jugadores Titulares y Reservas (colectivamente “Plantel Activo'') y demás empleados. Estas se aplican exclusivamente a la Copa Latinoamérica Norte 2016 y a ningún otro torneo, competición o partidas organizadas de League of Legends (''LoL''). La temporada 2016 de la Copa Latinoamérica Norte estará dividida en dos (''Ciclos'') denominados Apertura y Clausura. Cada ciclo constará de tres fases: (a) una temporada regular, (b) las eliminatorias, que tendrán lugar al finalizar la temporada regular, y (c) partidos de promoción/relegación luego de que concluyan las eliminatorias.La temporada 2016 de la Copa Latinoamérica Norte estará dividida en dos (''Ciclos'') denominados Apertura y Clausura. Cada ciclo constará de tres fases: (a) una temporada regular, (b) las eliminatorias, que tendrán lugar al finalizar la temporada regular, y (c) partidos de promoción/relegación luego de que concluyan las eliminatorias. Estas reglas oficiales (''Reglas'') de la Copa Latinoamérica Norte (''Liga'') aplican a todos y cada uno de los equipos que se hayan clasificado para participar en la Copa Latinoamérica Norte 2016, así como también a su Gerente General, Entrenador, Jugadores Titulares y Reservas (colectivamente “Plantel Activo'') y demás empleados. Estas se aplican exclusivamente a la Copa Latinoamérica Norte 2016 y a ningún otro torneo, competición o partidas organizadas de League of Legends (''LoL''). La temporada 2016 de la Copa Latinoamérica Norte estará dividida en dos (''Ciclos'') denominados Apertura y Clausura. Cada ciclo constará de tres fases: (a) una temporada regular, (b) las eliminatorias, que tendrán lugar al finalizar la temporada regular, y (c) partidos de promoción/relegación luego de que concluyan las eliminatorias.Estas reglas oficiales (''Reglas'') de la Copa Latinoamérica Norte (''Liga'') aplican a todos y cada uno de los equipos que se hayan clasificado para participar en la Copa Latinoamérica Norte 2016, así como también a su Gerente General, Entrenador, Jugadores Titulares y Reservas (colectivamente “Plantel Activo'') y demás empleados. Estas se aplican exclusivamente a la Copa Latinoamérica Norte 2016 y a ningún otro torneo, competición o partidas organizadas de League of Legends (''LoL'').La temporada 2016 de la Copa Latinoamérica Norte estará dividida en dos (''Ciclos'') denominados Apertura y Clausura. Cada ciclo constará de tres fases: (a) una temporada regular, (b) las eliminatorias, que tendrán lugar al finalizar la temporada regular, y (c) partidos de promoción/relegación luego de que concluyan las eliminatorias. Estas reglas oficiales (''Reglas'') de la Copa Latinoamérica Norte (''Liga'') aplican a todos y cada uno de los equipos que se hayan clasificado para participar en la Copa Latinoamérica Norte 2016, así como también a su Gerente General, Entrenador, Jugadores Titulares y Reservas (colectivamente “Plantel Activo'') y demás empleados. Estas se aplican exclusivamente a la Copa Latinoamérica Norte 2016 y a ningún otro torneo, competición o partidas organizadas de League of Legends (''LoL''). Estas reglas oficiales (''Reglas'') de la Copa Latinoamérica Norte (''Liga'') aplican a todos y cada uno de los equipos que se hayan clasificado para participar en la Copa Latinoamérica Norte 2016, así como también a su Gerente General, Entrenador, Jugadores Titulares y Reservas (colectivamente “Plantel Activo'') y demás empleados. Estas se aplican exclusivamente a la Copa Latinoamérica Norte 2016 y a ningún otro torneo, competición o partidas organizadas de League of Legends (''LoL''). Estas reglas oficiales (''Reglas'') de la Copa Latinoamérica Norte (''Liga'') aplican a todos y cada uno de los equipos que se hayan clasificado para participar en la Copa Latinoamérica Norte 2016, así como también a su Gerente General, Entrenador, Jugadores Titulares y Reservas (colectivamente “Plantel Activo'') y demás empleados. Estas se aplican exclusivamente a la Copa Latinoamérica Norte 2016 y a ningún otro torneo, competición o partidas organizadas de League of Legends (''LoL'')."
}